I0002   Checking package files in directory tests/e0021/somepkg
E0021   File tests/e0021/somepkg/README.txt : Error reading in line 1: invalid utf-8 sequence of 1 bytes from index 24
E0021   File tests/e0021/somepkg/README.txt : Error reading in line 51: invalid utf-8 sequence of 1 bytes from index 18
